abandonere
abbreviere
abdisere
abonnere
abortere
absentere
absoluttere
absolvere
absorbere
abstrahere
adaptere
addere
adherere
adjektivere
adle
administrere
adoptere
adressere
adsorbere
advisere
affektere
affisere
afrikanisere
agere
agglomerere
agglutinere
aggregere
agitere
ajourføre
akademisere
ake
akke
akkedere
akklimatisere
akkommodere
akkompagnere
akkordere
akkreditere
akkumulere
akkviescere
akkvirere
akselerere
aksentuere
akseptere
aksjonere
akte
aktivere
aktivisere
aktorere
aktualisere
akvarellere
alarmere
aldersbestemme
alfabetisere
alienere
alkoholisere
allegorisere
allergiteste
alliere
allitterere
allmenngjere
allokere
alludere
alterere
alternere
aluminere
amalgamere
ambulere
amerikanisere
amle
amortisere
amputere
amre
amstre
analysere
anbefale
andgjegle
andstemne
andvarpe
andøve
anerkjenne
anestesere
angle
anglifisere
anglisere
animalisere
animere
ankre
anlaupe
anløpe
annamme
annektere
annonsere
annotere
annullere
anodisere
anonymisere
anse
anskaffe
ansle
anstrenge
anstrengje
ansvarleggjere
ansvarsforsikre
ansvarstrygde
antake
antecedere
antedatere
antesipere
antikisere
antikrympebehandle
antikrympehandsame
antikrøllbehandle
antirefleksbehandle
antireflekshandsame
antirustbehandle
antirusthandsame
antistatbehandle
antistathandsame
antyde
anvise
apokopere
apostrofere
appellere
applaudere
applikere
applisere
apportere
appretere
approbere
appropriere
aptere
arbeide
arde
are
argumentere
arkaisere
arkebusere
arkivere
armere
aromatisere
arrangere
arre
arrestere
arretere
arrivere
arrondere
arte
artikulere
artsbestemme
asfaltere
aske
aspirere
assimilere
assistere
assortere
assosiere
assurere
atomisere
atrofiere
attachere
attakkere
attdikte
atterføde
atterløyse
atterreise
atterskape
atterskipe
attertrygde
attestere
attrahere
attrappere
attreise
attribuere
attskape
attvinne
audmykje
aue
augne
auksjonere
aule
auskultere
ausregne
autentifisere
autentisere
autoklavere
automatisere
autorisere
avalere
avalkoholisere
avansere
avbalansere
avbestille
avbetale
avbryte
avbyråkratisere
avdage
avdekke
avdekkje
avdempe
avdrage
avdramatisere
avduke
avdøme
avdømme
avekse
avertere
avfeie
avfeitte
avfolke
avfyre
avgifte
avgjere
avgrense
avgude
avheidre
avheimle
avhenge
avhjelpe
avhorne
avhovde
avhumanisere
avhøyre
avise
avkjøle
avkjønne
avklare
avklede
avklåre
avkode
avkolonisere
avkorte
avkrefte
avkriminalisere
avkristne
avlage
avlaste
avlegge
avleggje
avleie
avleire
avleive
avlete
avlevere
avlive
avloe
avluse
avlyse
avlytte
avløyse
avmagnetisere
avmilitarisere
avmytologisere
avmønstre
avmåte
avnasjonalisere
avnorske
avpasse
avpatruljere
avpolitisere
avreagere
avrette
avrime
avrunde
avruse
avråde
avsanne
avseie
avsetje
avskaffe
avskape
avskilte
avskipe
avskjere
avskoge
avskrekke
avslutte
avsløre
avsoppe
avspasere
avspegle
avsperre
avspore
avstemme
avstive
avstraffe
avstresse
avstyre
avsverje
avtake
avteikne
avtelje
avtene
avtinge
avtrappe
avunde
avvente
avverje
avverke
avvigsle
avvikle
avvise
avvæpne
bable
bade
bagatellisere
bagle
bakbinde
bake
baklaste
bakse
baksnakke
bakvaske
balanseføre
balansere
baldre
balere
balkanisere
ballaste
ballottere
balsamere
banalisere
bandasjere
banderolere
bandlegge
bandleggje
banelegge
baneleggje
banepålegge
banepåleggje
bangle
bangse
banne
bannlyse
bannstøyte
barbere
barme
barne
barrikadere
barsle
basere
bastardisere
baste
basunere
batne
bauge
baule
baute
beatboxe
bebreide
bedekke
bedekkje
bedrage
bedyre
bedøme
bedømme
bedøve
befale
befrukte
begeistre
begynne
behandle
beherske
behovsprøve
behøve
beinflyge
beise
beiskne
beisle
beke
beklage
bekrefte
beksle
bekymre
belage
belaste
belegge
beleggje
belge
belgje
belje
belle
belme
belyse
bemanne
bemle
bendsle
benefisere
bengle
benke
benkje
benåde
beordre
berekne
berge
bergtake
berike
berke
berkje
berrlegge
berrleggje
bese
beskytte
beslaglegge
beslagleggje
besne
bestemme
bestikke
bestille
bestråle
bestøve
besøke
besøkje
betakke
betale
betle
betone
betrakte
beundre
bevare
beve
bevege
beverte
bevise
bevisstgjere
bibre
bidrage
bikke
billettere
binde
bine
bisetje
bisne
bivre
bivuakkere
bjeffe
bjukte
blade
bladre
blaffe
blafre
blage
blake
blakne
blakre
blamere
blankpusse
blankskure
blaskre
blasonere
blautkoke
blautne
blegge
bleggje
bleigje
bleikne
blenge
blengje
blenke
blenkje
blidge
blidgjere
blidke
blidne
blike
blikre
blikte
blingse
blinke
blitse
blode
blodvekke
blodvekkje
blogge
blokkere
blokkfryse
blomstre
blóte
blotne
blotte
blottlegge
blottleggje
blottstille
blunde
blunke
blusse
blygje
bløde
bløffe
bløgge
bløkte
blåhate
blånekte
blåpugge
boikotte
bokføre
bokle
bokse
bokstavere
bolke
bolse
bolte
boltre
bombardere
bondefange
bone
bonge
bonitere
booke
bordklede
borge
bortforklare
bortføre
botanisere
botne
botnfelle
botnfryse
botnlegge
botnleggje
botnskrape
bragde
bragle
brakevade
bramme
brannforsikre
brannskatte
branntrygde
brase
braske
bratle
bratne
brengle
brennemerkje
brese
bresere
brevveksle
brife
brigsle
brikettere
brikje
briljere
brime
brodde
brodere
bronsere
brosjere
brotsje
brudevie
bruke
brulegge
bruleggje
brume
brumle
brumme
brunde
brunke
brunsteike
brunsteikje
brurevie
brurvie
brutalisere
brynne
brysje
bryte
bræle
brødføde
brøle
bråbremse
bråke
bråle
bråne
bråstanse
bråstogge
bråstoppe
bråsvinge
budsjettere
bufse
buføre
buge
buhage
bukke
bukle
buksere
bukte
buldre
bulke
bunge
bunkre
bunte
bure
bureise
burle
busetje
buskape
busme
bute
byde
bygge
byggje
bygsle
bykse
bylje
bylte
bynje
byrje
byråkratisere
bysje
bytne
bælflyge
bærle
bæsje
bøke
bøkje
bølje
bønhøyre
bønnhøyre
bøte
bøtelegge
bøteleggje
bøtlegge
bøtleggje
bøyke
bøykje
båse
båsfore
båsfôre
caste
celebrere
changere
chartre
chatte
chevrotere
chiffrere
clinche
clutche
coache
covre
croone
curle
cyanidisere
dabbe
dable
dadle
dadre
dagdrøyme
dage
dagne
dagse
dagsetje
dagverde
daldre
dale
dalge
dalle
damle
dampe
dampkoke
dandere
dangle
danke
danse
darre
darte
dase
daske
dasle
dasse
databehandle
dataføre
datastyre
datere
datle
datomerke
datomerkje
datostemple
daudne
dave
davre
debarkere
debattere
debitere
debutere
dechiffrere
dedikere
dedisere
dedusere
defilere
definere
deflatere
deflorere
deformere
degenerere
degge
deggje
degradere
dehumanisere
dehydrere
deilde
deile
dekantere
dekatere
deke
dekkje
deklamere
deklarere
deklassere
deklinere
dekode
dekomponere
dekontaminere
dekorere
dekretere
dekupere
delabialisere
delegere
delikatere
delirere
delje
deltake
demarkere
demaskere
dementere
demilitarisere
demisjonere
demle
demobilisere
demokratisere
demolere
demonisere
demonstrere
demontere
demoralisere
demotivere
dempe
demre
denasjonalisere
denaturalisere
denaturere
denge
dengje
denotere
dente
deplassere
deponere
deportere
deppe
deprimere
deprivatisere
derangere
derivere
desarmere
desavuere
desentralisere
desertere
desidere
designe
desillusjonere
desimere
desinfisere
desintegrere
desorganisere
desorientere
destillere
destruere
detaljere
detasjere
determinere
detonere
detronisere
devaluere
deviere
devle
diagnostisere
dibbe
didre
differensiere
differere
diffundere
diftongere
digitalisere
digne
dikke
dikte
diktere
dildre
dilke
dilte
dimensjonere
dimittere
dinere
dingle
dirigere
dirke
dirre
disiplinere
diske
diskontere
diskreditere
diskriminere
diskutere
diskvalifisere
dispensere
disponere
disputere
dissekere
dissentere
dissimilere
dissonere
dissosiere
distansere
distingvere
distrahere
distribuere
divergere
divertere
dividere
djupfryse
dokksetje
dokterere
dokumentere
dolke
domfelle
dominere
domisiliere
donere
donte
dore
dorge
dosere
dossere
dote
dotere
drabbe
drage
dragne
dralte
dramatisere
drangle
drapere
drasjere
drasle
drasse
dratle
dregge
dreie
dreise
drenere
dresse
dressere
drible
drifse
drifte
drille
drimse
driple
drisle
driste
drivle
drjose
droppe
drosle
drupe
drupse
drusle
dryle
drynje
drype
dryppturke
drypptørke
dryse
drysse
drønne
drøype
dublere
dudre
duellere
dufte
duge
dugeleggjere
dugleggjere
dugurde
duke
dukke
dulke
dulpe
dulte
dune
dunse
dunste
dupere
duplisere
dure
durle
dusje
dusjregne
duske
duskregne
dutle
dutte
duve
duvle
dvele
dvelje
dykje
dykke
dynje
dynke
dynte
dyppe
dyrke
dyrne
dysje
dysse
dyvje
dæse
dølje
dømme
dønne
døre
døyde
døype
døyste
døyve
dåfurde
dåme
ebbe
effektivisere
effektuere
effeminere
egalisere
egge
eggje
eikle
einglane
einlyde
einsrette
einstire
eire
ejakulere
eksaminere
eksegere
eksekvere
eksellere
eksemplifisere
ekserpere
eksersere
eksistere
ekskludere
ekskommunisere
ekspandere
ekspatriere
ekspedere
eksperimentere
ekspirere
eksplikere
eksploatere
eksplodere
eksponere
eksportere
ekspropriere
ekstemporere
ekstrahere
ekstrapolere
ektevie
ektevigsle
ekvipere
ekvivalere
elektrifisere
elektrisere
elevere
elgje
eliminere
elje
elke
elle
eloksere
elongere
eludere
emaljere
emanere
emansipere
emballere
embarkere
emendere
emigrere
emittere
emje
emulere
emulgere
endefete
endereise
endestupe
endossere
endre
enervere
engasjere
engle
engste
enje
ense
ensilere
e-poste
-ere
ergre
erigere
erkjenne
erklære
ernære
erobre
erodere
erotisere
erstatte
erverve
-escere
ese
eskalere
eskapere
eskortere
esle
estetisere
estimere
etablere
etikettere
etle
etse
etterbetale
etterforske
etterfylgje
etterfylle
etterfølge
etterfølgje
etterleve
etterlikne
etterlyse
etterløyve
etterprøve
ettersløkke
ettersløkkje
etterutdanne
ettervise
etymologisere
euforisere
europeisere
eutrofiere
evakuere
evaluere
evangelisere
exe
fable
fabrikkere
fabulere
fade
fagne
faite
fakke
fakle
fakse
faksimilere
faktorisere
fakturere
falbyde
falde
fallere
falme
false
famle
famne
famntake
fangste
fangtake
fantasere
farborde
fargelegge
fargeleggje
farke
farsere
farte
fascinere
fasettere
fasilitere
fasinere
fasongere
fastlegge
fastleggje
fastne
fastsetje
fate
fatne
favorisere
feie
feikte
feile
feilparkere
feire
feise
feitne
feitte
fekte
feminisere
femne
fendre
fengsle
fenne
feriere
fermentere
fernissere
festne
fetere
fette
fiffe
fighte
figurere
fikle
fiksere
fiksjonalisere
filere
filetere
filmatisere
filme
filosofere
filtre
filtrere
filtse
finansiere
findele
finere
finfordele
fingere
fingle
fingradere
fingre
finhakke
finhøvle
finkjemme
finpolere
finpusse
finrake
finregne
finrekne
finsikte
finslipe
finstille
fintelje
fiple
fippe
firre
-fisere
fisjonere
fisle
fiste
fitle
fjagge
fjante
fjase
fjaske
fjelgne
fjernstyre
fjernsyne
fjerte
fjeske
fjone
fjukte
fjuntre
fjuske
flabbe
flagge
flagne
flagre
flakke
flakne
flakre
flambere
flane
flanere
flangse
flankere
flare
flase
flasse
flatne
flattere
flaume
fleirfalde
flektere
flense
flesje
flikke
flikre
flimre
flise
fliselegge
fliseleggje
fliske
fliskre
flislegge
flisleggje
flokke
flokse
flolegge
floleggje
floppe
floragrafere
florere
flotre
flue
flukte
fluktuere
flume
fluorescere
fluoridere
fluorisere
flykte
flyte
flækje
flæse
fløkje
flørte
fløygje
fløyme
flåne
fnise
fnyse
fnøse
foge
fokusere
foliere
folke
folkesetje
folle
forakte
forandre
forankre
forarge
forarme
forbanne
forbarme
forbause
forbeine
forbere
forberede
forbetre
forbinde
forblende
forblinde
forbløde
forbløffe
forborde
forbrenne
forbruke
forbryte
forbyde
forbyte
fordampe
fordanske
fordele
forderve
fordjupe
fordoble
fordrage
fordre
fordreie
fordryge
fordumme
fordundre
fordunste
fordyre
fordølje
fordøme
fordømme
fordøye
fôre
foredle
foreine
forelske
forenkle
forevige
forfalske
forfatte
forfekte
forferde
forfine
forfjamse
forfjase
forflate
forfordele
forfremje
forfremme
forfriske
forfryse
forfylgje
forfølge
forfølgje
forføre
forgape
forgasse
forgifte
forgjere
forglagge
forgløyme
forgreine
forgrove
forgude
forgylle
forhage
forhale
forhandle
forhaste
fôrhauste
forhefte
forhekse
forhindre
forhorne
forhøgje
forhøyre
forkalke
forkaste
forkjetre
forkjæle
forkjøle
forklare
forkludre
forklåre
forkole
forkorte
forkromme
forkue
forkvakle
forkynne
forlange
forlegge
forleggje
forlenge
forlengje
forlesse
forlike
forlise
forlokke
forlove
forlyste
forløyse
formalisere
formane
formaste
formatere
forme
formeinke
formeire
formidle
formilde
forminske
formolde
formulere
formørke
formørkje
fornedre
fornekte
fornikle
fornorske
fornye
fornærme
fororde
forpakte
forpeste
forplante
forpleie
forplikte
forprosjektere
forpurre
forrekne
forrenne
forrette
forrøyne
forråde
forråe
forsake
forsarve
forsegle
forsegne
forseinke
forselje
forsere
forsetje
forsikre
forsimple
forsinke
forskale
forskanse
forske
forskjere
forskotere
forskottere
forskrekke
forskreve
forskusle
forskuve
forskyve
forslumme
forsnakke
forsnevre
forsone
forspane
forspille
forspørje
forsterke
forstille
forstire
forstrekke
forstrekkje
forstumme
forstuve
forstyrre
forstørre
forsumpe
forsure
forsvare
forsvenske
forsverje
forsvinne
forsynde
forsyne
forsyrgje
forsyte
forsøke
forsøkje
forsølve
forsøme
forsømme
forsøple
forsørge
forsørgje
fortake
fortape
forteie
forteikne
fortelje
fortene
fortenke
fortenkje
fortette
fortifisere
fortinne
fortjone
fortjukke
fortne
fortolke
fortolle
fortone
fortorve
fortrenge
fortrengje
fortrolle
fortrykke
fortrykkje
fortrylle
fortryte
fortsetje
fortvile
fortynne
fortyske
fortære
fortøye
forulempe
forulukke
forulykke
forundre
forunne
forureine
forurette
forvalte
forvandle
forvanske
forvare
forvede
forveksle
forvelle
forvenje
forvenne
forverre
forvildre
forville
forvirre
forvise
forvisse
forvitre
forvrenge
forvrengje
forvrøvle
forvåge
forynge
foryngje
forære
forårsake
fosforescere
fosse
fosskoke
fossregne
fote
fotografere
fotokopiere
fotostatkopiere
fragmentere
fraksjonere
frakte
framandgjere
frambringe
framheve
framkalle
framleige
framskunde
framsnakke
framstille
frankere
frappere
frasere
frate
fraternisere
frede
fredlyse
frege
freiste
frekventere
fremje
fremme
fribanke
frifinne
frigjere
frikjenne
frisere
friskne
fristille
fritake
fritere
fronte
frottere
frustrere
fryde
frygde
frykte
fryne
fryselagre
fryseturke
frysetørke
frøyse
frådøme
frådømme
fråge
fråkjenne
fubbe
fugle
fukle
fukte
fullautomatisere
fullbyrde
fullende
fullfylgje
fullfølge
fullfølgje
fullgjere
fullne
fullnøye
fullrose
fulltakke
fumpe
fundamentere
fundere
fungere
funke
funkle
funksjonere
furasjere
furnere
fusjonere
fuske
fye
fyke
fylkje
fyllekøyre
fyne
fyre
fysse
føle
føne
førebere
førebygge
førebyggje
førehandsdøme
førehandsdømme
førehandstinge
føreorde
føreprosjektere
føreseie
føresetje
førespegle
førestille
føretake
føretrekke
føretrekkje
førpensjonere
førtidspensjonere
føte
føyse
gabbe
gafle
gagle
gagne
gaide
gakke
galdre
galdtrakke
galonere
galoppere
galvanisere
gamble
gamse
gande
gapflire
gapskratte
garantere
gardere
garnere
garnisonere
garrottere
garte
garve
gase
gasjere
gassforgifte
gasterere
gaue
gauke
gaule
gaume
gause
gauske
geie
geige
geigle
geigre
geime
geine
geiple
geise
geivle
geminere
generalisere
generere
gerere
germanisere
gestikulere
gidre
gigge
gigre
giljotinere
gimle
gimpe
gine
gipse
girere
gisle
gispe
gjalle
gjeipe
gjekke
gjeldne
gjeme
gjempe
gjendikte
gjennomarbeide
gjennombore
gjennomdebattere
gjennomdiskutere
gjennomføre
gjennomgløde
gjennomgranske
gjennomhole
gjennomhòle
gjennomleve
gjennomlyse
gjennomprøve
gjennomskode
gjennomsteike
gjennomsteikje
gjennomstrøyme
gjennomsyre
gjenoppbygge
gjenoppbyggje
gjenopplive
gjenopprette
gjenreise
gjenskaffe
gjenskape
gjentake
gjenvinne
gjeste
gjestespele
gjordne
gjorne
gjære
gjøde
gjøgle
gjølme
gjøne
gjønstre
glafse
glame
glamorisere
glamre
glamse
glanke
glanse
glape
glase
glasere
glattbarbere
glattkjemme
glattrake
gleime
gleine
gleipe
gleivre
glense
gleppe
glidke
glikke
glimre
glindre
glinse
glire
glispe
glitre
globalisere
glorifisere
glosteike
glosteikje
glufse
glume
glumse
glunke
glutte
glygge
glyggje
glyme
glymje
glyre
glyrne
gløde
gløse
gløyre
glåpe
gnafse
gnagle
gnaldre
gnarre
gnaule
gnaure
gnavle
gneistre
gneldre
gneste
gnette
gnikke
gnikse
gnirke
gnise
gnisle
gnisse
gnistre
gnitre
gnubbe
gnudre
gnuffe
gnugge
gnukke
gnure
gnurke
gnusse
gnuste
gnyste
gnåle
godge
godgjere
godkjenne
godne
godprate
godsnakke
godsvalle
godtake
godtale
godte
godtgjere
gofse
golve
gomle
google
grabbe
gradbøye
grade
gradere
graduere
gramse
granske
granulere
grasbinde
grase
grassere
gratinere
gratulere
gravere
gravitere
gravlegge
gravleggje
gravsetje
greine
greipe
gremje
grepje
grevje
grevsetje
griljere
grillsteike
grillsteikje
grimeleie
grisebanke
grisetakle
grisle
grovhakke
grovne
grovreinse
grovreinske
grovsikte
grovsortere
grovtelje
gruble
grublisere
gruglede
grunde
grundere
grune
grunnlegge
grunnleggje
grunnstøyte
grupe
gruppere
gruslegge
grusleggje
gruvle
grymje
grymte
gryne
grypje
grysje
grøfte
grønke
grøppe
grøsse
grøte
grøype
gråne
gufse
gugge
gulke
gulne
gulpe
gummiere
gumpe
gurgle
gurpe
gutere
gyltre
gymme
gymnastisere
gyne
gyse
gyve
gørrstikke
habilitere
hacke
hafse
haike
halloe
halloie
hallusinere
halme
halvere
halvgardere
halvsteike
halvsteikje
halvte
hame
hamne
hamre
hamse
hamstre
handdrage
handfakte
handhelse
handheve
handikappe
handle
handmjølke
handplukke
handsame
handse
handsetje
handtakke
handtere
handvalke
hanse
hardkoke
hardne
hardsalte
hardstappe
hardtrampe
harkle
harmonere
harmonisere
harpikse
harpunere
harselere
harskne
harve
harvle
hasebinde
hasle
haste
hate
hatre
hauge
hauglegge
haugleggje
haugtake
hauke
hauste
haustpløye
havarere
heade
hedde
hegde
hegne
heidre
heilgardere
heilne
heimle
heimsøke
heimsøkje
heine
heitne
heke
hekse
hektografere
helake
helge
hellelegge
helleleggje
helvte
hemje
hemle
hemme
hemmelegstemple
hemne
hemte
herkje
herleggjere
hermetisere
heroisere
herpe
herpesere
herske
hesple
hetne
hetse
heve
hevje
hie
higre
hike
hikre
hildre
hile
himle
hindre
hinke
hinkre
hinte
hirre
hisse
hjale
hjelle
hjernevaske
hjule
hoie
holde
holke
homme
homogenisere
honke
honkle
honorere
hope
hòpe
horve
hospitere
hote
hovere
hudflengje
hudrose
hudstryke
hugbere
huglegge
hugleggje
hugstele
hugsvale
hugtake
huie
huke
hulke
hulle
hultre
humanisere
humpe
humre
humse
hundjage
hundse
hundsetje
hungre
hurgle
hurkle
hurre
hurtiglade
hurve
husbankfinansiere
huse
husere
husle
husse
hute
hutle
hutre
hutte
hybrisere
hyde
hye
hyfse
hykje
hykle
hyle
hylje
hyperventilere
hypnotisere
hyppe
hyrde
hyrgje
hysse
hyve
hyvekse
hæde
hækje
hæle
hærsetje
hærtake
hærvinne
høgakte
høgje
høglove
høgne
høgtide
høkre
høle
hølje
høljeregne
høse
høvle
høyre
høyste
håe
hånflire
håpe
håre
håtte
håve
idealisere
identifisere
ideologisere
idyllisere
iføre
ignorere
iklede
ilegge
ileggje
ilikne
illremje
illudere
illuminere
illustrere
imaginere
imitere
immatrikulere
immigrere
immortalisere
immunisere
implantere
implementere
implisere
implodere
imponere
importere
impregnere
improvisere
inaktivere
inaugurere
incitere
indikere
individualisere
indoktrinere
indusere
industrialisere
infantilisere
infiltrere
infisere
inflammere
inflatere
influere
informere
inhalere
inhibere
initiere
injisere
injuriere
inkarnere
inklinere
inkludere
inkorporere
innarbeide
innbille
innbyde
inndrage
innebere
innfatte
innfinne
innføre
innhente
innkalle
innkassere
innkvartere
innleie
innleme
innlemme
innlosjere
innordne
innovere
innpasse
innprente
innrette
innrullere
innrømme
innsetje
innskipe
innskjerpe
innskrenke
innsnevre
innstifte
innstille
innstudere
inntreffe
innvandre
innverke
innvie
innvilge
innynde
inokulere
inseminere
insinuere
insistere
insitere
inspirere
inspisere
installere
instituere
institusjonalisere
instruere
instrumentere
integrere
intellektualisere
intendere
intensivere
interagere
interessere
interferere
interfoliere
internalisere
internasjonalisere
internere
interpellere
interpolere
interpretere
intervenere
intervjue
intimere
intimidere
intimisere
intonere
intrigere
introdusere
invadere
invalidisere
inventere
invertere
investere
invitere
involvere
ionisere
irettesetje
irisere
ironisere
irre
irrigere
irritere
iscenesetje
ise
isenesetje
-isere
isne
isolere
isskyte
ivre
jabbe
jadre
jafse
jage
jagle
jakse
jaksle
jakte
jalme
jamføre
jamme
jamre
jamse
jamstille
jangle
jarpe
jarve
jasle
jasse
jassifisere
jatle
jatte
javle
jazze
jazzifisere
jekke
jelke
jenke
jibbe
jobbe
jodisere
jodle
jogge
joike
joke
jorte
journalføre
journalisere
jubilere
juble
juge
jugle
jule
jumle
jumpe
juske
justere
jøye
jåsse
kable
kadmiere
kadreie
kafse
kakke
kakle
kakstryke
kalandrere
kaldflire
kaldhamre
kaldne
kaldprate
kaldrøyke
kaldrøykje
kaldskratte
kaldsmide
kaldstarte
kalfatre
kalibrere
kalke
kalkere
kalkulere
kalle
kalligrafere
kalsinere
kaltre
kampere
kamse
kamuflere
kanalisere
kandisere
kangle
kannelere
kanonisere
kanse
kansellere
kante
kantre
kantskjere
kantstikke
kapitalisere
kapitulere
kappdrikke
kappkøyre
kappsegle
kappsigle
kappspringe
kappsvømme
kappsymje
kapre
kapseise
kapsle
kapunere
karakterisere
karamellisere
karikere
karnefle
karnøfle
karte
kartere
kartlegge
kartleggje
kartonere
kaskoforsikre
kaskotrygde
kassere
kastebyte
kastehandle
kastrere
katalogisere
katalysere
kategorisere
katekisere
kaue
kauke
kausjonere
kauterisere
kavere
keise
keivle
kelatere
kibbe
kidnappe
kikje
kikke
kikre
kikse
kimse
kingse
kinke
kinkse
kise
kisle
kite
kitte
kjafse
kjage
kjakse
kjangse
kjase
kjave
kjederøyke
kjederøykje
kjee
kjefte
kjekle
kjeltre
kjelve
kjene
kjenneteikne
kjeppjage
kjetle
kjose
kjærteikne
kjølhale
kjølsprenge
kjølsprengje
kjønnskvotere
kjønnssortere
kjøpe
kjørne
kjøte
kjøve
kladde
klakke
klampe
klamre
klandre
klappe
klapre
klapse
klarere
klargjere
klarlegge
klarleggje
klarne
klaske
klassifisere
klatre
klatte
klatteløyve
klattemåle
klattløyve
klattmåle
klausulere
klavebinde
kleie
klekkje
klemre
kleppe
klette
klikke
klimaregulere
klimatisere
klimpre
kline
klingre
klinkbygge
klinkbyggje
klinsje
klirre
klisjere
klistre
klivre
kloakkere
klone
klore
klorere
klosshale
kludre
klumse
klunke
klusse
klutre
klykke
klykkje
klynke
klyve
kløfte
kløkkje
kløtsje
kløvje
kløvkøyre
klårgjere
klårlegge
klårleggje
klårne
knake
knakke
knalle
knarke
knarte
knaske
knatre
kneble
knee
knegge
kneggje
kneise
knekke
knekkje
knele
kneppe
knepre
knerke
knerte
knesetje
kneskure
kneste
knette
knikse
kniple
knipse
knirke
knise
knisle
knistre
knite
knitre
knive
knoge
knope
knoppe
knote
knubbe
knuffe
knulle
knuppe
knurke
knurpe
knurre
knurve
knuse
knuselske
knusle
knuspe
knustre
knysje
knøde
koagulere
kodifisere
kogle
kokettere
kokevaske
kolke
kollaborere
kollapse
kollasjonere
kollatere
kollektivisere
kollidere
kollkaste
kollokvere
kollsegle
kollsigle
kolne
kolonisere
kolorere
kolportere
koltre
kombinere
kommandere
kommatere
kommentere
kommersialisere
kommunisere
kommutere
komparere
kompensere
kompilere
komplementere
komplettere
komplimentere
komplisere
komponere
kompostere
komprimere
kompromisse
kompromittere
kondemnere
kondensere
kondisjonere
kondolere
konferere
konfigurere
konfirmere
konfiskere
konfrontere
kongruere
konjugere
konke
konkludere
konkretisere
konkurranseutsetje
konkurrere
konnektere
konnotere
konse
konsentrere
konseptualisere
konsertere
konservere
konsignere
konsipere
konskribere
konsolidere
konspirere
konstatere
konstituere
konstruere
konsulere
konsultere
konsumere
kontakte
kontaminere
konte
kontere
kontingentere
kontinuere
kontorisere
kontrahere
kontrasignere
kontrastere
kontre
kontribuere
kontrollere
konvergere
konversere
konvertere
konvoiere
kooperere
koordinere
kopiere
kople
koppe
kopulere
kore
koreografere
korke
korne
korporativisere
korrelere
korrespondere
korrigere
korrodere
korrugere
korrumpere
korse
korskaste
korslegge
korsleggje
korsmerkje
kortne
kostnadsrekne
kostymere
kovre
krakelere
krakke
krame
kramse
krangle
kranse
krase
krasje
krasjlande
kraule
kraume
kraune
krave
kravellbygge
kravellbyggje
kravle
kreditere
kreere
kreiste
krele
kremere
kremte
krenelere
krenge
krengje
krenke
krenkje
krepere
krepse
krete
krevje
krible
krige
krikle
krile
kriminalisere
kringkaste
kringsetje
krinse
krisle
krite
kritisere
kritle
krode
krokere
krokkere
kromgarve
kronikkere
kroppsvisitere
krosse
krosskaste
krosslegge
krossleggje
krossmerkje
krote
kruke
krumpe
krydre
krympe
kryne
krype
kryptere
kryptifisere
krysse
kryssforhøyre
kryssklippe
kryss-stille
krysstille
krystallisere
kryste
kryvje
kræsje
krøple
kråle
kråne
kubere
kue
kujonere
kukelure
kukke
kulke
kulminere
kulske
kulsle
kultivere
kumle
kumulere
kunngjere
kuppe
kuratere
kurere
kurse
kursivere
kurtisere
kuste
kute
kvadrere
kvakke
kvakle
kvalifisere
kvalpe
kvamne
kvantifisere
kvantitere
kvaste
kvatne
kvavne
kvee
kveikje
kveikne
kvekkje
kvelde
kvele
kvelpe
kverne
kverrsetje
kverulere
kvervle
kvese
kvesse
kvikne
kvingle
kvinke
kvinkre
kvisje
kviskre
kvisle
kviste
kvitkalke
kvitne
kvitre
kvitte
kvittere
kvitvaske
kvotere
kylje
kynge
kyngje
kysse
kyve
kødde
køe
køyre
kåle
kåsere
kåtne
kåve
labbe
labialisere
laborere
lafte
lagdele
lagerføre
lagge
lagre
lakesalte
lakke
lakkere
lakre
laksere
lale
lalle
laminere
lamre
landdrage
lande
landlyse
landsetje
landsforvise
langkoke
langpine
lansere
lappe
larme
lasere
lasjere
lastbalansere
laste
latinisere
latterleggjere
lauge
laupe
lausne
lauve
lave
lede
lee
lefle
legalisere
legere
legge
leggje
legitimere
leiste
lekamleggjere
leme
lemje
lemleste
lemme
lengte
lepje
leske
lesse
léte
letne
levandegjere
levere
levitere
levne
levre
liberalisere
ligge
liggje
lignifisere
likerette
likestille
likke
likne
likvidere
lindre
lingse
linjere
linke
linnkoke
lirke
lisensiere
lisitere
liskre
listeføre
litografere
livberge
livje
livne
livnære
livsforsikre
livskremme
livstrygde
ljode
ljodisolere
ljome
ljosne
ljossetje
ljuge
lobbe
lobotomere
loe
loffe
logge
logre
lokalbedøve
lokalisere
lokke
lommeringe
longere
loope
lorgnettere
lorte
lose
lóse
lòse
losjere
losne
losse
lovere
lovprise
lovsynge
lovsyngje
lufse
lufte
luftturke
lufttørke
lugge
lukkynske
lukkynskje
lukkønske
lukkønskje
lukrere
luksere
lulle
lunsje
lurke
lurre
lurtenke
lurtenkje
luske
lùte
lutre
lydisolere
lykkynske
lykkynskje
lykkønske
lykkønskje
lykte
lyne
lynsje
lysne
lyssetje
lystre
lækje
løde
løgste
løne
lønne
løpe
løynmyrde
løyse
lågne
låne
låntake
låre
låse
låtteleggjere
magasinere
magnetisere
maie
maile
makadamisere
maksimalisere
maksimere
maksle
makte
maktstele
makulere
malte
maltraktere
mane
mangfaldiggjere
mangle
manifestere
manikyrere
manipulere
mankere
manne
mannsoppdekkje
manudusere
manøvrere
marginalisere
marinere
marke
markere
marknadsføre
marme
marmorere
marsjere
martre
maskere
maskinere
maskinstrikke
maskulinisere
massakrere
masseprodusere
massere
masseundersøke
masseundersøkje
maste
mastre
masturbere
matberge
matche
mate
materialisere
matrikulere
matstelle
mattere
maule
medføre
mediere
meditere
medverke
meie
meinke
meiske
meisle
meistre
meite
mekanisere
mekke
mekle
mekre
melere
mellomlande
memorere
menesere
menge
mengje
menstruere
mentalgranske
mentalundersøke
mentalundersøkje
mercerisere
mergle
mergstele
merittere
merkje
merle
meske
metallisere
midle
midtmåle
migrere
mikroskopere
mikse
mildne
militarisere
mimre
minelegge
mineleggje
minere
mingle
minimalisere
minimere
minke
minske
misakte
misbruke
misbyde
misbyte
misfarge
misgjere
mishage
mishandle
mishugse
mishøyre
misjonere
miskjenne
miskunne
mislike
mismæte
misoppfatte
misrekne
misse
missnakke
mistake
mistale
mistenke
mistenkeleggjere
mistenkje
mistenkjeleggjere
mistolke
mistvile
mistyde
misunne
mitigere
mjaue
mjuklande
mjukne
mobbe
mobilisere
modellere
moderere
modernisere
modifisere
modulere
mogeleggjere
mogleggjere
molde
molestere
mompe
monne
monoftongere
monopolisere
montere
moppe
moralisere
morgne
mortifisere
mosjonere
motarbeide
motivere
motorisere
motprove
motseie
motsetje
motsvare
mottake
motverke
movere
mudre
muldre
mulebinde
muljere
mulkte
mulktere
mulle
multiplisere
mumifisere
mumisere
mumle
mumpe
mumse
mune
munne
munse
murke
murre
musisere
musle
mussere
mutere
mygle
myke
myldre
myle
mylje
myrde
myrje
mysje
mystifisere
møblere
møke
møkje
mønstre
mørbanke
mørkje
mørklegge
mørkleggje
mørkne
mørne
møyke
møykje
møyrbanke
møyrne
målbere
målbinde
måle
måpe
nafse
nage
namnkjenne
nappe
nare
narkotisere
narre
nasalere
nasjonalisere
natte
naturalisere
naude
naudlande
naudslakte
naudstire
naukre
nave
navigere
nazifisere
nedbemanne
nedbetale
nedfelle
nedgradere
nedkjempe
nedprioritere
nedstamme
nedverdige
nedvurdere
nedætte
negere
negle
neglisjere
neie
neise
neitte
nekte
nenne
nettprate
nevehelse
nevle
niglane
nigle
nikke
nikse
nippe
nistire
nitrere
nitrifisere
nivellere
njode
nomadisere
nominere
nonchalere
nonsjalere
normalisere
normallade
normere
nosse
notere
notifisere
nudde
nufse
nugge
nulle
nullstille
nummerere
numre
nuppe
nupre
nuske
nusle
nusse
nyansere
nydyrke
nygge
nyggje
nykkje
nynne
nyreise
nyse
nyskape
nyskipe
nysne
nyte
nyttiggjere
nækje
næle
nærme
nødlande
nødslakte
nøffe
nøkke
nøyde
nøytralisere
nåtle
obdusere
objektivere
objektivisere
observere
obstruere
odle
offentleggjere
offerere
ofre
oie
okke
okkultere
okkupere
oksidere
oktroajere
okulere
oljegruse
olstre
omadressere
ombere
ombestemme
ome
óme
omfamne
omfatte
omfordele
omformulere
omhandle
ominnreie
omkalfatre
omklassifisere
omkomle
omkomple
omleire
omlægre
ommøblere
omorganisere
omplassere
omprioritere
omringe
omrokere
omrøde
omsetje
omskape
omskjere
omskole
omskolere
omskule
omskulere
omstille
omstrukturere
omstøyte
omvurdere
onanere
ondulere
ongle
onne
opalescere
opalisere
opendage
operasjonalisere
operere
opparbeide
oppbevare
oppdage
oppdatere
oppdrage
oppfatte
oppfordre
oppfylle
oppføre
oppgradere
oppheve
opphøgje
oppjustere
oppklare
oppklåre
oppleve
oppløyse
oppmane
oppmode
oppmuntre
oppnemne
opponere
oppsede
oppspore
oppstøe
oppsummere
oppsøke
oppsøkje
opptake
oppvarte
oppvurdere
optere
optimalisere
optimere
orde
ordinere
ordlegge
ordleggje
ordleie
ordne
oreigne
organisere
orientere
orkestrere
orme
ormekte
ornamentere
orsake
oscillere
ose
ostrakere
otre
overbelaste
overbevise
overdimensjonere
overdrage
overdøyve
overeksponere
overfuse
overføre
overhale
overhøvle
overhøyre
overkompensere
overlappe
overlaste
overlesse
overleve
overlevere
overliste
overmanne
overnatte
overopphete
overprøve
overraske
overrekke
overrekkje
overrumple
oversitje
oversitte
overskygge
overskyggje
overskylje
overspele
overstråle
oversvømme
oversymje
overtake
overtale
overteikne
overtelje
overtrekke
overtrekkje
overtyde
overvake
overvelde
overvinne
overvintre
overvurdere
ovre
ovundre
padle
paginere
pakse
pakte
palatalisere
palmere
palpere
panele
panere
panorere
pansre
pante
pantsetje
pantstille
paradere
parafere
parafrasere
paragrafere
parallellforskuve
parallellforskyve
parallellføre
parallellisere
parallellskuve
parallellskyve
paralysere
parasittere
pare
parere
parfymere
parkere
parlamentere
parlere
parodiere
parsellere
partere
partisipere
pasifisere
passere
passiare
passivisere
pasteurisere
patentere
patinere
patronisere
patruljere
peike
peile
peise
pele
pelle
pelletere
pelletisere
pelme
pelse
pendle
penetrere
penne
pense
pensjonere
pensle
pepre
perennere
perfeksjonere
perforere
perkolere
perkutere
permittere
permutere
persiflere
persipere
persistere
personifisere
personleggjere
perspirere
perte
perturbere
pervertere
pese
pete
pierce
piffe
pigmentere
pile
pilke
pilotere
pimpe
pingse
pinke
piple
pirre
pirse
piruettere
piske
pisse
pisseprate
pissprate
pistre
pitle
pjatte
pjoltre
pjutre
plaffe
plagiere
planere
planlegge
planleggje
plapre
plaske
plassere
plastre
platinere
pledere
plenarbehandle
plenarhandsame
plettere
plikte
plinge
plire
plissere
plogbremse
ploge
plombere
plotte
pludre
plugge
plukke
plundre
plusse
plyndre
plystre
pløye
poengtere
poetisere
pokulere
polarisere
polemisere
polere
politisere
pollinere
polstre
polymerisere
pomadisere
poncere
popularisere
porre
porsjonere
portere
portrettere
posere
posisjonere
posjere
postdatere
poste
postere
postlegge
postleggje
poststemple
postulere
pòte
potensere
praie
praktisere
prale
prange
predestinere
predeterminere
predisponere
prefabrikkere
preferere
prege
prejudisere
prekludere
prelle
preludere
prente
prenumerere
preparere
preppe
presentere
preservere
presidere
presipitere
presisere
preskribere
prestere
prestevie
presumere
presupponere
pretendere
prikke
prikle
prille
prime
primsigne
primtalfaktorisere
prioritere
privatisere
privatkøyre
privilegere
probere
problematisere
produsere
proe
profanere
profesjonalisere
profetere
profilere
profittere
prognosere
prognostisere
programmere
projisere
proklamere
proletarisere
prolongere
promenere
promillekøyre
promotere
promovere
prompe
promulgere
pronominalisere
propagandere
propagere
proponere
proporsjonere
proppe
prosedere
prosentlikne
prosentløne
prosentlønne
prosessere
prosjektere
proskribere
prospektere
prostituere
protesjere
protestere
protokollere
protte
prove
proviantere
provosere
prunke
pruppe
pruste
prute
pryde
pryle
prøvebore
prøvefilme
prøvehoppe
prøvekøyre
prøveskyte
psykoanalysere
ptroe
publisere
pudre
puffe
puge
pugge
pukke
pukklegge
pukkleggje
pukksetje
puldre
pule
pulle
pulse
pulsere
pulverisere
punche
punge
punktere
punktsveise
purle
pusle
pusse
puste
putle
putre
pynte
pæle
pønitere
pønse
pønske
pøse
pøyse
påbyde
pådrage
påføre
påkalle
påkjære
pålegge
påleggje
påminne
påmønstre
påpeike
pårekne
påskjøne
påskjønne
påskunde
påverke
påvise
quilte
rable
radbrekke
radde
radere
radiere
radikalisere
radle
radreinse
radreinske
raffinere
rafse
rafte
ragle
rakne
rakse
rale
raljere
ralle
ramle
ramponere
rangere
rangstrikke
ransake
rappellere
rapportere
rapse
rasere
rasjonalisere
rasjonere
rasle
rasse
raste
ratifisere
ratle
ratte
raudne
rauke
raule
raute
ravle
reagere
reaktivere
realisere
realitetsbehandle
realitetshandsame
reassumere
reassurere
recensere
redigere
rediskontere
redoble
reduplisere
redusere
referere
reflektere
reforhandle
reformere
refse
refundere
refusere
regalere
regenerere
regissere
registrere
regjere
reglementere
regne
regularisere
regulere
regummiere
rehabilitere
reike
reime
reindyrke
reingjere
reinse
reinske
reinvaske
reinvestere
reipe
reire
reite
reive
rejisere
rekapitulere
reklamere
rekle
rekognosere
rekommandere
rekonstruere
rekordbetre
rekreere
rekruttere
rektifisere
rekuperere
rekvirere
rekylere
relatere
relativisere
relegere
relokere
rembe
rembursere
remittere
remje
remontere
remplassere
rene
rengle
renonsere
renovere
reorganisere
reparere
repatriere
repe
repetere
replisere
representere
reprodusere
reservere
resetje
residere
residivere
resignere
resipere
resirkulere
resistere
resitere
resolvere
resonnere
resorbere
resosialisere
respektere
respirere
respondere
restaurere
reste
restere
restituere
restrukturere
resultere
resymere
retardere
rete
retirere
retne
rettferdiggjere
rettkjenne
rettleie
returnere
retusjere
revaluere
revansjere
reversere
revidere
revoltere
revolusjonere
revurdere
ridle
rige
rigge
rikgjere
rikje
rikle
rikosjettere
ringmerkje
riple
ripostere
rippe
risikere
risse
ristornere
rivalisere
robbe
robustisere
rocke
rogge
rokere
rolpe
rolse
romanisere
romantisere
romstere
rope
rosemåle
rotere
rotfylle
rubrisere
ruffe
ruinere
rullere
rumle
rumpeake
rumple
rundjule
rundkysse
rundlure
rundsnakke
rundspele
rundstele
rundstrikke
rundvaske
runge
runke
ruple
rushe
rusle
russifisere
rustbehandle
rusthandsame
rustifisere
rutle
rutsje
rutte
ruvle
rydje
rygge
ryggje
ryke
rykke
rykkje
ryle
rysje
ryske
ryskje
rækje
ræse
røfle
røkje
røle
rølpe
røntgenfotografere
røpe
røske
røte
røve
røyke
røykje
røyklegge
røykleggje
røynleggjere
røyre
røyse
røyste
rådføre
rådlegge
rådleggje
rådspørje
råflire
råkøyre
råle
råskale
råskrelle
råsteike
råsteikje
sable
sabotere
sadde
safte
sage
sakke
sakne
sakse
saksøke
saksøkje
saktne
saldere
sale
saluttere
samanfatte
samanlikne
samansverje
samarbeide
sambinde
sameine
sameksistere
samføre
samkøyre
samlage
samle
samordne
sampe
sample
samringe
samringje
samråde
samse
samsnakke
samstave
samstemme
samstille
samsvare
samtykkje
samverke
sandstrøye
sanere
sanforisere
sanke
sanksjonere
sannkjenne
sanse
sarre
sarve
satinere
satirisere
satisfisere
satse
saume
saure
sause
sautere
sautre
savle
scripte
secernere
sede
sedimentere
seede
segmentere
segne
segregere
seie
seigdrage
seigne
seigpine
seile
seinke
seipe
seise
seksualisere
sekularisere
sekundere
selebrere
selektere
semaforere
sementere
semihurtiglade
seminere
semsgarve
semske
semskgarve
senge
sengje
senke
sense
sensibilisere
sensitivere
sensitivisere
sensurere
sentimentalisere
sentralisere
sentre
sentrere
sentrifugere
separere
serialisere
serratere
sertifisere
servere
sesongdebutere
sesse
setje
setre
settle
sevjebarke
sevjeberke
sevjeberkje
sexdebutere
shoppe
showe
shunte
sibreie
sideordne
sidke
sidrikke
sifrere
signalere
signalisere
signere
sigre
sikke
sikksakke
silbløde
sile
sille
silregne
silrenne
simplifisere
simulere
sindre
singre
sinkle
sinklegge
sinkleggje
sintre
siregne
sirkle
sirkulere
sirle
sirre
siselere
sisle
sitere
sitje
sitre
sitte
sivilisere
sjabbe
sjablongere
sjage
sjakle
sjakre
sjakse
sjalte
sjamponere
sjanghaie
sjarmantisere
sjarmere
sjartre
sjaske
sjattere
sjaue
sjefe
sjeide
sjekke
sjenere
sjikanere
sjingle
sjoge
sjogse
sjokkbehandle
sjokke
sjokkere
sjokkhandsame
sjokkopne
sjonglere
sjue
sjuge
sjugse
sjugte
sjukne
sjøe
sjøsetje
sjåke
skadeskyte
skaffe
skafte
skake
skaldre
skale
skalere
skalke
skalkeherme
skalpere
skalte
skambyde
skamfere
skamfile
skamfryse
skamføre
skamklippe
skamkøyre
skamme
skamraske
skamraudne
skamrose
skamskyte
skamstele
skandalisere
skandere
skanne
skante
skape
skarifisere
skatte
skattlegge
skattleggje
skavle
skeide
skeie
skeike
skeivdele
skeivle
skikke
skildre
skillinge
skilte
skimre
skimte
skingre
skipe
skiple
skirne
skissere
skitre
skivje
skjale
skjegge
skjeggje
skjekke
skjekkje
skjelettere
skjelme
skjematisere
skjemme
skjenke
skjenkje
skjenne
skjerme
skjersetje
skjolde
skjule
skjærne
skjøne
skjønse
skjørne
skjørpe
skjøtte
skoddelegge
skoddeleggje
skode
skofte
skogre
skòle
skolere
skolme
skolregne
skòlregne
skorsetje
skortne
skovle
skrabbe
skramle
skrappe
skrate
skrauve
skrave
skravere
skredderere
skreide
skrense
skreve
skrible
skrikke
skrimsle
skrinlegge
skrinleggje
skripte
skritte
skrote
skryfte
skrykke
skrykkje
skrynje
skræke
skrækje
skræne
skrøkke
skrømte
skråheve
skråle
skråne
skråsetje
skråve
skubbe
skudre
skufle
skulde
skulere
skulke
skulme
skulptere
skulse
skumkøyre
skumme
skumpe
skumpiske
skumple
skumpløye
skumre
skumreinse
skumtygge
skumtyggje
skunke
skunkle
skunse
skurdtreske
skurdtreskje
skure
skurke
skurne
skurre
skurtreske
skurtreskje
skusle
skuve
skvadronere
skvakke
skvakle
skvaldre
skvale
skvalpe
skvampe
skvample
skvape
skvasle
skvate
skvatle
skvatre
skvelje
skvelpe
skvinkle
skvipe
skvise
skvisle
skvitle
skvitre
skvulpe
skvæle
skyfle
skyggje
skygne
skyldsetje
skylje
skylpe
skymre
skyrpe
skysse
skyte
skyve
skålde
skåne
skårjage
sladde
sladre
slagge
slaglodde
slakne
slakte
slamme
slampe
slamre
slankre
slapne
slapse
slarke
slarpe
slarre
slatre
slaure
slavebinde
sleikje
slekte
slengje
slentre
slepekøyre
sletne
slettbygge
slettbyggje
slikje
slikke
slime
slinde
slindre
slingre
slinke
slitre
sloke
slote
slubre
sludde
sludre
slufse
slumpe
slumre
sluntre
slure
slurke
slurpe
sluske
sluttføre
sløkke
sløkkje
sløre
sløvne
sløye
sløyme
slåtre
smadre
smake
smakle
smalke
smalne
smashe
smaske
smatre
smatte
smeikje
smeise
smeite
smekte
smergle
smide
smigre
smike
smile
smiske
smokke
smugdrikke
smugle
smugrøyke
smugrøykje
smuldre
smulne
smuske
smusle
smusse
smyge
smætte
smøre
småfryse
småkoke
småminke
småne
småprate
småregne
småskunde
småsnakke
småspringe
småstele
snadre
snafse
snakke
snaldre
snaltre
snapse
snarke
snaske
snaugnage
snauklippe
snavle
snede
sneise
sneke
snerre
sneve
sniffe
snigle
snikfotografere
snikje
snikkere
snikkontorisere
snikmyrde
snikre
snirkle
snobbe
snoe
snoke
snorke
snubbe
snufse
snugge
snulle
snultre
snure
snurkle
snuse
snuske
snuvle
snyde
snykte
snylte
snype
snækje
snøbake
snøe
snøfte
snørekøyre
snøse
snøvle
snåve
sodde
solidarisere
solle
sollisitere
solturke
soltørke
somle
sondere
sondre
sordinere
sortere
sose
sosialisere
sote
spakne
spandere
spane
spanke
spankulere
spanne
spante
sparke
sparkle
sparre
spase
spasere
spauke
spee
speede
spegle
speide
speike
speile
spekje
spekke
spekkmåle
spekulere
spesialisere
spesifisere
spidde
spike
spikre
spinne
spionere
spiralisere
spissformulere
spjarre
spjelke
spjerre
spjette
spjåke
spleise
splintre
splitte
spolere
sponse
sporte
spotte
sprade
sprale
spratle
spraye
sprekkje
sprelle
sprene
sprenge
sprengfyre
sprengje
sprengkøyre
sprike
sprikje
springe
sprinte
sprite
spritle
sprone
sprudle
sprute
sprutregne
sprøsteike
sprøsteikje
sprøytelakkere
språke
spunse
spurte
sputre
spyle
spytte
spæke
spækje
spøkje
spørje
stabilisere
stable
staffere
stage
stagnere
staile
stakke
stakre
stalle
stambokføre
standardisere
stane
stange
stanke
staple
starte
starve
stase
stasjonere
statuere
stauke
staure
stave
stavre
stege
steike
steikje
steinsetje
stekkje
stelpe
stemple
stengje
stenke
stenografere
stensilere
stereotypere
sterilisere
sterkne
sterre
stevje
stie
stifte
stigmatisere
stike
stikne
stikte
stile
stilisere
stilne
stiltre
stime
stimle
stimreinse
stimulere
stinge
stinke
stiple
stipulere
stire
stivfryse
stivle
stivne
stjernemerke
stjernemerkje
stjoltre
stjorne
stoffe
stogge
stolpre
stoltsere
stomle
stople
storkne
storme
storregne
storskratte
storspringe
stote
stòte
stotre
straffedøme
straffedømme
strakne
strande
strangulere
stratifisere
streife
streike
streke
strende
strene
strengje
strengle
stresse
streve
stridregne
strile
strinte
striple
strippe
stripse
striregne
stritte
strukturere
strukturrasjonalisere
strutte
stryke
strøne
strøye
strøyme
strøype
studere
stuke
stulle
stultre
stumse
stunte
stupe
stupne
stupregne
stute
stutne
stuve
styggje
stykkje
style
stynje
styrje
styrkje
styrme
styrtbløde
styrtregne
stæle
stødve
støkkje
stølne
støne
stønne
støpsle
størkne
størne
støve
støvsuge
støye
støype
støyre
støyte
ståke
stålsetje
ståsse
sublimere
subordinere
subsidiere
subskribere
substantivere
substituere
subsumere
subtrahere
subvenere
sudde
suffigere
sufflere
suggerere
sukle
sukre
suksedere
sulke
sulle
summe
summere
sundre
supere
supplere
supplikkere
supponere
supprimere
surfe
surkle
surle
surmule
surne
surre
suse
susle
suspendere
susse
sutenere
sutle
sutte
svabbe
svabre
svage
svakke
svalke
svalle
svalne
svamle
svampe
svanse
svarpe
svartmåle
svartne
svarve
svasse
sveie
sveime
sveipe
sveive
sveivle
svekke
svekkje
svelge
svelgje
svelle
sveltefôre
svemje
svenge
svengje
sverje
sverme
sverve
svervle
sveve
svibrenne
svikte
svimerkje
svindle
svine
svinebinde
svinge
svinse
svipe
svippe
svire
svirre
svirte
svitsje
svolke
svortne
svovle
svulme
svuppe
svømme
svåle
svåsse
swinge
syde
sykle
sylvlegge
sylvleggje
symbolisere
symje
sympatisere
sympatistreike
synde
syndikere
synergere
synge
syngje
synkopere
synkronisere
synkverve
synleggjere
synse
syntetisere
syrgje
syrne
sysselsetje
systematisere
sytre
syvje
særmerkje
særprege
søgje
søkje
søkkje
sølvlegge
sølvleggje
søple
sørge
sørgje
sørve
søtne
søve
søyre
sålde
såne
tabellarisere
tabloidisere
tabuere
tabuisere
tabulere
tagne
taime
take
takle
takse
taksere
takste
taktere
talge
talme
tamburere
tampe
tamponere
tamse
tandle
tangere
tankføre
tanne
tanspringe
tantre
tapetsere
tappe
tariffere
taste
tatovere
taue
taumkøyre
tauvre
tefte
tegle
teigpløye
teikne
teipe
teknifisere
tekste
teksturere
telefonere
telegrafere
teleksere
telge
telgje
telje
telte
tematisere
temje
temme
tempere
temperere
temporisere
tendere
tendre
tene
tenje
tenke
tenkje
tenle
tenne
tentere
teoretisere
teppelegge
teppeleggje
terge
terpe
terrassere
terrorisere
terse
testamentere
teste
tetne
tevje
tevle
tidsnormere
tikle
tilarbeide
tilbakevise
tilbrigde
tilbyde
tildele
tildøme
tildømme
tileigne
tilfredsstille
tilføye
tilheimle
tilhevde
tilhøyre
tilkalle
tilkjenne
tille
tillegge
tilleggje
tillempe
tillyse
tilmåte
tilpasse
tilråde
tilseie
tilsetje
tilsløre
tilstøyte
tilte
tiltrekke
tiltrekkje
tilverke
tilvise
timje
tindre
tinge
tingleggjere
tinglyse
tiple
tipse
tire
tirle
tirre
tise
tiske
tisse
title
titre
titrere
titte
titulere
tjafse
tjatre
tjatte
tjelde
tjone
tjore
tjuve
tjuvfiske
tjuvkjenne
tjuvlåne
tjuvskyte
tjuvslakte
tjuvstarte
tjuvtrene
tjærebrede
tjørebrede
todele
tolerere
tolke
tollklarere
tonesetje
toppmåle
torne
torpe
torpedere
torturere
totalfrede
totte
touchere
trabelere
trace
tradere
trafikkere
trafse
trakassere
trakke
trakte
traktere
trame
transcendere
transendere
transferere
transfigurere
transformere
transfundere
transistorisere
transitivere
transittere
transjere
transkribere
translitterere
transmittere
transpirere
transplantere
transponere
transportere
trasere
traske
trasle
traspe
trasse
trassere
traumatisere
traustne
traversere
travestere
tredele
treffe
trekke
trekkje
tremulere
trenere
trenge
trengje
trepanere
treske
treskje
triangulere
trikke
trikse
trilte
trimme
trippe
triumfere
trivialisere
trivle
trollbinde
trolle
trollstemme
trollstille
trolltake
trompetere
trongsprøve
troppe
trose
trotte
trugle
trulle
trulove
trumfe
trunkere
truske
trustifisere
trygle
trykke
trykkimpregnere
trykkje
trylle
trysje
trælbinde
trælke
trøble
trøtne
tråkinne
tråkke
tråkle
tråle
tråraute
tråve
tudre
tuffe
tufle
tugle
tukle
tukte
tulte
tupere
turnere
turrbanke
turrbanne
turrdestillere
turrkoke
turrlegge
turrleggje
turrmaule
turrprate
turrsalte
turrsvømme
turrsymje
turrtenke
turrtenkje
turrtrene
turve
tuse
tusje
tusjere
tusne
tutre
tvage
tvagle
tvangsauksjonere
tvangsdirigere
tvangsevakuere
tvangsfôre
tvangsinnlegge
tvangsinnleggje
tvarle
tverrkaste
tverr-rykke
tverr-rykkje
tverrstane
tverrstanse
tverrstogge
tverrstoppe
tverrykke
tverrykkje
tviauke
tvibrenne
tvibykse
tvibyte
tvidele
tvike
tvikøyre
tvile
tvilegge
tvileggje
tville
tvingle
tvinle
tvinte
tvirenne
tvirle
tvispringe
tviste
tvisteike
tvisteikje
tvitake
TV-overvake
tv-overvake
tvære
twiste
tygle
tykkje
tylle
tymte
tyngne
typisere
typpe
tyrannisere
tyrme
tysje
tysse
tystne
tæpe
tætte
tøfle
tømme
tørrbanke
tørrbanne
tørrdestillere
tørrkoke
tørrlegge
tørrleggje
tørrmaule
tørrprate
tørrsalte
tørrsvømme
tørrsymje
tørrtenke
tørrtenkje
tørrtrene
tøtsje
tøvle
tøvre
tøye
tøyme
tøyre
tåkelegge
tåkeleggje
tårne
tåtte
tåttespringe
tåttspringe
ufarleggjere
uffe
uge
uggre
ugjere
ugrasharve
ugrashorve
uhappe
uke
ukvesse
ulage
ulme
ulukkeforsikre
ulukkesforsikre
ulukkestrygde
ulukketrygde
ulykkeforsikre
ulykkesforsikre
ulykkestrygde
ulykketrygde
umenneskeleggjere
umenneskjeleggjere
umyndiggjere
underbetale
underbygge
underbyggje
undereksponere
underkaste
underkjenne
underkjøle
underkue
underminere
underordne
underrette
underselje
understellsbehandle
understreke
undersøke
undersøkje
underteikne
undertrykke
undertrykkje
undertvinge
undervise
undervurdere
uniformere
universalisere
unndrage
unne
unnfange
unnvere
urbanisere
ure
urframføre
urinere
uroe
uroppføre
urydde
urydje
uskadeleggjere
usurpere
utagere
utarbeide
utarte
utbasunere
utbetale
utbetre
utbrodere
utdanne
utdatere
utdjupe
uteksaminere
utelukke
uteslutte
utfalde
utferde
utfolde
utfordre
utforske
utfylle
utgiftsføre
utgjere
utheve
utkjempe
utklarere
utklasse
utkrystallisere
utleie
utlevere
utlikne
utløyse
utmanøvrere
utmatte
utmerke
utmerkje
utmåle
utnytte
utpante
utparsellere
utpeike
utplassere
utprøve
utradere
utrangere
utruste
utrydde
utrydje
utsetje
utslette
utsmykke
utsondre
utspionere
utstaffere
utstasjonere
utstråle
utstyre
uttrykke
uttrykkje
uttyde
utvandre
utveksle
utvide
utvikle
utvinne
utvise
utykkje
utøve
uvete
uvite
vabbe
vade
vafse
vagabondere
vaie
vakle
vaksinere
vakuumere
vakuumpakke
valdre
valdtake
valfarte
validere
valke
valte
valtre
valutere
vanakte
vandalisere
vandre
vanheidre
vanhelge
vanhevde
vanrøkte
vanskjøtte
vanslekte
vansmekte
vanstelle
vantakke
vappe
varetake
varetektsfengsle
variere
varle
varmeisolere
varmgjære
varmhamre
varmheve
varmhevje
varmrøyke
varmrøykje
varne
varpe
varre
varsle
vaske
vassbeise
vassflyge
vasskjemme
vasslipe
vassmørje
vass-slipe
vatne
vatre
vattere
vave
vavle
vavre
vebbe
vedde
vede
vedkjenne
vedrøre
vedtake
vefte
vegetere
vegleie
vegre
veifte
veikne
veime
veive
veivle
vekse
veksle
vektlegge
vektleggje
velje
velle
velsigne
venje
venne
ventilere
verbalisere
verdsetje
verdsleggjere
vêre
verifisere
verke
verkeleggjere
verkje
vernalisere
verne
verse
versere
versifisere
versne
verte
verve
vettskremme
veve
vevje
vibrere
vidareforedle
vidareutdanne
vidareutvikle
vidke
vidne
vie
vigilere
vikariere
vikle
vildre
villeie
vill-leie
vimre
vimse
vindisere
vindturke
vindtørke
vinke
vinkle
vinse
vinterfôre
vinterføde
vinterisolere
vintre
vire
virilisere
visere
visitere
visle
vispe
visualisere
vitalisere
vitaminisere
vite
vitje
vitre
vitse
vitskremme
vitte
vivisekere
voffe
vokalisere
vokke
vokse
vole
voltere
voltigere
vomere
vondle
vone
votere
vrake
vralte
vrangstrikke
vrengle
vrikke
vrimle
vringle
vræle
vrøvle
vulgarisere
vulkanisere
vulke
vurdere
væpne
våle
våne
vårkunne
våronne
våse
våtne
våtsalte
våtte
wappe
webbe
wokke
x-e
xerografere
xylografere
yle
ylje
ylle
ymje
ymte
ynge
yngje
yngle
ynke
ynskje
yppe
yrkje
zappe
zoome
æle
ærekrenke
ærekrenkje
æreskjelle
æreskjemme
ætte
ættleie
økonomisere
øksle
økte
ølje
ønskje
ørmekte
øsle
øve
øydelegge
øydeleggje
øygje
øygle
øygne
øyremerkje
ågre
åkalle
åle
ålmenngjere
åmoge
åmåle
åndeleggjere
åskode
åtake
åthuge
åtnøye
åtvare
