agnsildane
agnsildar
akselreimane
akselreimar
akslereimane
akslereimar
aktmålingane
aktmålingar
akvarellmålingane
akvarellmålingar
alfastrålingane
alfastrålingar
algeoppblomstringane
algeoppblomstringar
alsmerrane
alsmerrar
alvemøyane
alvemøyar
alvnevrane
alvnevrar
avlsmerrane
avlsmerrar
bekkekvernane
bekkekvernar
beltereimane
beltereimar
berereimane
berereimar
bjørkenevrane
bjørkenevrar
bladsildane
bladsildar
blautmyrane
blautmyrar
blinkeøksane
blinkeøksar
blinkøksane
blinkøksar
blodlevrane
blodlevrar
blodårane
blodårar
blåmyrane
blåmyrar
boknesildane
boknesildar
boløksane
boløksar
bredeelvane
bredeelvar
breelvane
breelvar
brikane
brikar
bunkårane
bunkårar
bøddeløksane
bøddeløksar
båsbrikane
båsbrikar
båtripane
båtripar
diktarårane
diktarårar
elvane
elvar
ermane
ermar
evjemyrane
evjemyrar
falløksane
falløksar
feitsildane
feitsildar
feittlevrane
feittlevrar
fellessetrane
fellessetrar
ferdselsårane
ferdselsårar
ferdsleårane
ferdsleårar
festarmøyane
festarmøyar
fiskeelvane
fiskeelvar
fiskeørnane
fiskeørnar
fivelmyrane
fivelmyrar
fjellheiane
fjellheiar
fjordsildane
fjordsildar
flaggermusermane
flaggermusermar
flintøksane
flintøksar
flogemyrane
flogemyrar
flotmyrane
flotmyrar
forfangsildane
forfangsildar
forfangstsildane
forfangstsildar
frakkeermane
frakkeermar
fredhelgane
fredhelgar
frosensildane
frosensildar
frægdarmøyane
frægdarmøyar
frægdemøyane
frægdemøyar
førhelgane
førhelgar
gaglemyrane
gaglemyrar
gateøksane
gateøksar
gimrane
gimrar
gravrøysane
gravrøysar
grenseelvane
grenseelvar
grønnevrane
grønnevrar
gråbeinsildane
gråbeinsildar
gullårane
gullårar
gygrane
gygrar
gørrmyrane
gørrmyrar
gørrsildane
gørrsildar
gåselevrane
gåselevrar
hakereimane
hakereimar
halereimane
halereimar
halspulsårane
halspulsårar
halsreimane
halsreimar
halsårane
halsårar
halvermane
halvermar
halvhelgane
halvhelgar
halvøyane
halvøyar
hamarøksane
hamarøksar
hammarøksane
hammarøksar
handkvernane
handkvernar
handspikane
handspikar
handøksane
handøksar
havørnane
havørnar
heiane
heiar
heimsetrane
heimsetrar
helgane
helgar
hengemyrane
hengemyrar
hengjemyrane
hengjemyrar
herdane
herdar
hovudårane
hovudårar
høgheiane
høgheiar
høgtidshelgane
høgtidshelgar
håmerrane
håmerrar
hårreimane
hårreimar
hårrøyrsårane
hårrøyrsårar
innekvernane
innekvernar
innfartsårane
innfartsårar
islandssildane
islandssildar
istersildane
istersildar
istresildane
istresildar
isøksane
isøksar
jakkeermane
jakkeermar
jolehelgane
jolehelgar
julehelgane
julehelgar
jøkleelvane
jøkleelvar
jøkulelvane
jøkulelvar
kaffikvernane
kaffikvernar
kajakkårane
kajakkårar
kanoårane
kanoårar
kapillærårane
kapillærårar
kilereimane
kilereimar
kjøtkvernane
kjøtkvernar
kjøttkvernane
kjøttkvernar
kjøttøksane
kjøttøksar
kjøtøksane
kjøtøksar
kleivane
kleivar
klokkereimane
klokkereimar
knubbesildane
knubbesildar
kokeøyane
kokeøyar
kongeørnane
kongeørnar
koralløyane
koralløyar
kroppspulsårane
kroppspulsårar
krydderkvernane
krydderkvernar
kryddersildane
kryddersildar
kvernane
kvernar
kvistrøysane
kvistrøysar
kvitsunnhelgane
kvitsunnhelgar
kåpeermane
kåpeermar
lagasildane
lagasildar
lakselvane
lakselvar
laksesildane
laksesildar
langhelgane
langhelgar
langsetrane
langsetrar
leggspikane
leggspikar
lêrreimane
lêrreimar
levrane
levrar
livreimane
livreimar
livårane
livårar
ljåspikane
ljåspikar
lymfeårane
lymfeårar
lyngheiane
lyngheiar
lågåsildane
lågåsildar
låvebrikane
låvebrikar
malmårane
malmårar
mandelkvernane
mandelkvernar
matjessildane
matjessildar
merkeøksane
merkeøksar
merkjeøksane
merkjeøksar
merrane
merrar
mjødmane
mjødmar
moltemyrane
moltemyrar
mosemyrane
mosemyrar
munnvikane
munnvikar
myrane
myrar
møyane
møyar
nevrane
nevrar
nordsjøsildane
nordsjøsildar
nyttårshelgane
nyttårshelgar
nyårshelgane
nyårshelgar
olsokhelgane
olsokhelgar
ondrane
ondrar
orremyrane
orremyrar
paddeøksane
paddeøksar
padleårane
padleårar
palmeøyane
palmeøyar
palsmyrane
palsmyrar
papirkvernane
papirkvernar
peparkvernane
peparkvernar
peparmøyane
peparmøyar
pinsehelgane
pinsehelgar
portårane
portårar
puffermane
puffermar
pulsårane
pulsårar
påskehelgane
påskehelgar
raglanermane
raglanermar
rakesildane
rakesildar
reimane
reimar
rimmane
rimmar
ripane
ripar
røyane
røyar
røyrane
røyrar
røysane
røysar
sagaøyane
sagaøyar
saltsildane
saltsildar
samferdselsårane
samferdselsårar
samferdsleårane
samferdsleårar
samleårane
samleårar
sandøyrane
sandøyrar
savenevrane
savenevrar
setrane
setrar
sideelvane
sideelvar
sildane
sildar
sivmyrane
sivmyrar
skallereimane
skallereimar
skinkeermane
skinkeermar
skjoldmøyane
skjoldmøyar
skjorteermane
skjorteermar
skjortermane
skjortermar
skogsmyrane
skogsmyrar
skogøksane
skogøksar
skoreimane
skoreimar
skotmerrane
skotmerrar
skottmerrane
skottmerrar
skrumplevrane
skrumplevrar
skulderreimane
skulderreimar
slipereimane
slipereimar
småsildane
småsildar
snaumyrane
snaumyrar
spekesildane
spekesildar
spikane
spikar
spilane
spilar
spjutøksane
spjutøksar
spydøksane
spydøksar
steinrøysane
steinrøysar
stillehavsøyane
stillehavsøyar
stingsildane
stingsildar
storrmyrane
storrmyrar
storsildane
storsildar
straumsildane
straumsildar
stridsøksane
stridsøksar
styreårane
styreårar
stølshelgane
stølshelgar
sursildane
sursildar
sveittereimane
sveittereimar
søkkemyrane
søkkemyrar
søkkjemyrane
søkkjemyrar
tekkenevrane
tekkenevrar
tekkjenevrane
tekkjenevrar
telgeøksane
telgeøksar
telgjeøksane
telgjeøksar
torskelevrane
torskelevrar
torvmyrane
torvmyrar
trafikkøyane
trafikkøyar
trafikkårane
trafikkårar
trettandehelgane
trettandehelgar
trøyeermane
trøyeermar
turrsildane
turrsildar
tverrelvane
tverrelvar
tyrispikane
tyrispikar
tømmermannsøksane
tømmermannsøksar
tørrsildane
tørrsildar
ungmerrane
ungmerrar
ungmøyane
ungmøyar
utfartsårane
utfartsårar
utøyane
utøyar
varårane
varårar
vassildane
vassildar
vass-sildane
vass-sildar
vassårane
vassårar
vedøksane
vedøksar
veikårane
veikårar
vesterhavsøyane
vesterhavsøyar
viftereimane
viftereimar
vikane
vikar
villspikane
villspikar
vintersildane
vintersildar
vrikkeårane
vrikkeårar
vulkanøyane
vulkanøyar
våpenøksane
våpenøksar
vårsildane
vårsildar
våtmyrane
våtmyrar
øksane
øksar
ørnane
ørnar
øyane
øyar
øyrane
øyrar
årane
årar
årgangskvernane
årgangskvernar
åringsmerrane
åringsmerrar
